-------------------------------------------------------------------------------
Test set: formative9.AppTest
-------------------------------------------------------------------------------
Tests run: 1, Failures: 0, Errors: 0, Skipped: 0, Time elapsed: 0.092 s - in formative9.AppTest
